Empezando por los datos
…
# Importando datos
landing_data <- read_csv("data/sample_landings_data_raw.csv")

## Rows: 7214 Columns: 8
## ── Column specification ────────────────────────────────────────────────────────
## Delimiter: ","
## chr (3): dat, gr, sp
## dbl (5): yy, trip, effort, l_cm, w_cm
## 
## ℹ Use `spec()` to retrieve the full column specification for this data.
## ℹ Specify the column types or set `show_col_types = FALSE` to quiet this message.

landing_data

## # A tibble: 7,214 × 8
##       yy dat      trip effort gr    sp              l_cm  w_cm
##    <dbl> <chr>   <dbl>  <dbl> <chr> <chr>          <dbl> <dbl>
##  1  2003 4/30/03     1     10 Trap  Caesoi cunning    36 1089.
##  2  2003 4/30/03     1     10 trap  Caesio cuning     29  565.
##  3  2003 4/30/03     1     10 Trap  Caesio cuning     34  916.
##  4  2003 4/30/03     1     10 Trap  Caesio cuning     36 1089.
##  5  2003 4/30/03     1     10 Trap  Caesio cuning     34  916.
##  6  2003 4/30/03     1     10 Trap  Caesoi cunning    28  508.
##  7  2003 4/30/03     1     10 Trap  Caesio cuning     30  627.
##  8  2003 4/30/03     1     10 Trap  Caesio cuning     27  455.
##  9  2003 4/30/03     1     10 Trap  Caesio cuning     33  837.
## 10  2003 4/30/03     1     10 Trap  Caesio cuning     35 1000.
## # … with 7,204 more rows
…
Nuestra base de datos tiene 3 filas que reportan valores
NA. Si deseamos eliminar estas observaciones se puede
utilizar la función na.omit() que eliminará cualquier fila
que tenga presencia de NA.

landing_data <- na.omit(landing_data)
landing_data

## # A tibble: 7,211 × 8
##     Year Date       Trip_ID effort Gear  Species        Length_cm Weight_g
##    <dbl> <date>       <dbl>  <dbl> <chr> <chr>              <dbl>    <dbl>
##  1  2003 2003-04-30       1     10 Trap  Caesoi cunning        36    1089.
##  2  2003 2003-04-30       1     10 trap  Caesio cuning         29     565.
##  3  2003 2003-04-30       1     10 Trap  Caesio cuning         34     916.
##  4  2003 2003-04-30       1     10 Trap  Caesio cuning         36    1089.
##  5  2003 2003-04-30       1     10 Trap  Caesio cuning         34     916.
##  6  2003 2003-04-30       1     10 Trap  Caesoi cunning        28     508.
##  7  2003 2003-04-30       1     10 Trap  Caesio cuning         30     627.
##  8  2003 2003-04-30       1     10 Trap  Caesio cuning         27     455.
##  9  2003 2003-04-30       1     10 Trap  Caesio cuning         33     837.
## 10  2003 2003-04-30       1     10 Trap  Caesio cuning         35    1000.
## # … with 7,201 more rows
…
# Importando datos
landing_data <- read_csv("data/sample_landings_data_raw.csv")

## Rows: 7214 Columns: 8
## ── Column specification ────────────────────────────────────────────────────────
## Delimiter: ","
## chr (3): dat, gr, sp
## dbl (5): yy, trip, effort, l_cm, w_cm
## 
## ℹ Use `spec()` to retrieve the full column specification for this data.
## ℹ Specify the column types or set `show_col_types = FALSE` to quiet this message.

landing_data

## # A tibble: 7,214 × 8
##       yy dat      trip effort gr    sp              l_cm  w_cm
##    <dbl> <chr>   <dbl>  <dbl> <chr> <chr>          <dbl> <dbl>
##  1  2003 4/30/03     1     10 Trap  Caesoi cunning    36 1089.
##  2  2003 4/30/03     1     10 trap  Caesio cuning     29  565.
##  3  2003 4/30/03     1     10 Trap  Caesio cuning     34  916.
##  4  2003 4/30/03     1     10 Trap  Caesio cuning     36 1089.
##  5  2003 4/30/03     1     10 Trap  Caesio cuning     34  916.
##  6  2003 4/30/03     1     10 Trap  Caesoi cunning    28  508.
##  7  2003 4/30/03     1     10 Trap  Caesio cuning     30  627.
##  8  2003 4/30/03     1     10 Trap  Caesio cuning     27  455.
##  9  2003 4/30/03     1     10 Trap  Caesio cuning     33  837.
## 10  2003 4/30/03     1     10 Trap  Caesio cuning     35 1000.
## # … with 7,204 more rows
…
